%YAML 1.1
%TAG !u! tag:unity3d.com,2011:
--- !u!1001 &1969102020218762206
PrefabInstance:
  m_ObjectHideFlags: 0
  serializedVersion: 2
  m_Modification:
    m_TransformParent: {fileID: 0}
    m_Modifications:
    - target: {fileID: 100000, guid: d6421ee9aa6e3e9479b12c819c4ffee2, type: 3}
      propertyPath: m_Name
      value: Bow
      objectReference: {fileID: 0}
    - target: {fileID: 400000, guid: d6421ee9aa6e3e9479b12c819c4ffee2, type: 3}
      propertyPath: m_LocalPosition.x
      value: 0
      objectReference: {fileID: 0}
    - target: {fileID: 400000, guid: d6421ee9aa6e3e9479b12c819c4ffee2, type: 3}
      propertyPath: m_LocalPosition.y
      value: 0
      objectReference: {fileID: 0}
    - target: {fileID: 400000, guid: d6421ee9aa6e3e9479b12c819c4ffee2, type: 3}
      propertyPath: m_LocalPosition.z
      value: 0
      objectReference: {fileID: 0}
    - target: {fileID: 400000, guid: d6421ee9aa6e3e9479b12c819c4ffee2, type: 3}
      propertyPath: m_LocalRotation.x
      value: 0
      objectReference: {fileID: 0}
    - target: {fileID: 400000, guid: d6421ee9aa6e3e9479b12c819c4ffee2, type: 3}
      propertyPath: m_LocalRotation.y
      value: 0
      objectReference: {fileID: 0}
    - target: {fileID: 400000, guid: d6421ee9aa6e3e9479b12c819c4ffee2, type: 3}
      propertyPath: m_LocalRotation.z
      value: 0
      objectReference: {fileID: 0}
    - target: {fileID: 400000, guid: d6421ee9aa6e3e9479b12c819c4ffee2, type: 3}
      propertyPath: m_LocalRotation.w
      value: 1
      objectReference: {fileID: 0}
    - target: {fileID: 400000, guid: d6421ee9aa6e3e9479b12c819c4ffee2, type: 3}
      propertyPath: m_RootOrder
      value: 0
      objectReference: {fileID: 0}
    - target: {fileID: 400000, guid: d6421ee9aa6e3e9479b12c819c4ffee2, type: 3}
      propertyPath: m_LocalEulerAnglesHint.x
      value: 0
      objectReference: {fileID: 0}
    - target: {fileID: 400000, guid: d6421ee9aa6e3e9479b12c819c4ffee2, type: 3}
      propertyPath: m_LocalEulerAnglesHint.y
      value: 0
      objectReference: {fileID: 0}
    - target: {fileID: 400000, guid: d6421ee9aa6e3e9479b12c819c4ffee2, type: 3}
      propertyPath: m_LocalEulerAnglesHint.z
      value: 0
      objectReference: {fileID: 0}
    - target: {fileID: 400000, guid: d6421ee9aa6e3e9479b12c819c4ffee2, type: 3}
      propertyPath: m_LocalScale.x
      value: 0.2
      objectReference: {fileID: 0}
    - target: {fileID: 400000, guid: d6421ee9aa6e3e9479b12c819c4ffee2, type: 3}
      propertyPath: m_LocalScale.y
      value: 0.2
      objectReference: {fileID: 0}
    - target: {fileID: 400000, guid: d6421ee9aa6e3e9479b12c819c4ffee2, type: 3}
      propertyPath: m_LocalScale.z
      value: 0.2
      objectReference: {fileID: 0}
    m_RemovedComponents: []
  m_SourcePrefab: {fileID: 100100000, guid: d6421ee9aa6e3e9479b12c819c4ffee2, type: 3}
